<?xml version="1.0" encoding="UTF-8"?>
<svg height="128px" viewBox="0 0 128 128" width="128px" xmlns="http://www.w3.org/2000/svg">
    <path d="m 19.070312 14.894531 h 89.730469 c 4.496094 0 8.144531 3.644531 8.144531 8.144531 v 82.089844 c 0 4.496094 -3.648437 8.140625 -8.144531 8.140625 h -89.730469 c -4.5 0 -8.144531 -3.644531 -8.144531 -8.140625 v -82.089844 c 0 -4.5 3.644531 -8.144531 8.144531 -8.144531 z m 0 0" fill="#c64600" fill-opacity="0.999699" stroke="#812d00" stroke-linejoin="round" stroke-width="5.62172"/>
    <path d="m 18.902344 14.898438 h 90.148437 c 4.417969 0 8 3.582031 8 8 v 79 c 0 4.417968 -3.582031 8 -8 8 h -90.148437 c -4.421875 0 -8 -3.582032 -8 -8 v -79 c 0 -4.417969 3.578125 -8 8 -8 z m 0 0" fill="#241f31" fill-opacity="0.999699" stroke="#c64600" stroke-linejoin="round" stroke-width="5.573"/>
    <path d="m 33.53125 59 h 5.324219 c 2.5 0 4.527343 2.238281 4.527343 5 v 30 c 0 2.761719 -2.027343 5 -4.527343 5 h -5.324219 c -2.503906 0 -4.53125 -2.238281 -4.53125 -5 v -30 c 0 -2.761719 2.027344 -5 4.53125 -5 z m 0 0" fill="#ff7800"/>
    <path d="m 89.144531 54 h 5.324219 c 2.503906 0 4.53125 2.238281 4.53125 5 v 35 c 0 2.761719 -2.027344 5 -4.53125 5 h -5.324219 c -2.5 0 -4.527343 -2.238281 -4.527343 -5 v -35 c 0 -2.761719 2.027343 -5 4.527343 -5 z m 0 0" fill="#f9f06b"/>
    <path d="m 70.925781 39 h 5.324219 c 2.503906 0 4.53125 2.238281 4.53125 5 v 50 c 0 2.761719 -2.027344 5 -4.53125 5 h -5.324219 c -2.5 0 -4.527343 -2.238281 -4.527343 -5 v -50 c 0 -2.761719 2.027343 -5 4.527343 -5 z m 0 0" fill="#f6d32d"/>
    <path d="m 52.226562 29 h 5.328126 c 2.5 0 4.527343 2.238281 4.527343 5 v 60 c 0 2.761719 -2.027343 5 -4.527343 5 h -5.328126 c -2.5 0 -4.527343 -2.238281 -4.527343 -5 v -60 c 0 -2.761719 2.027343 -5 4.527343 -5 z m 0 0" fill="#ffa348"/>
</svg>
